<svg id="Ebene_1" data-name="Ebene 1" xmlns="http://www.w3.org/2000/svg" viewBox="0 0 200 149.84">
    <defs>
        <style>.cls-1{fill:white;}</style>
    </defs>
    <polygon class="cls-1" points="131.29 149.84 100 86.95 68.71 149.84 131.29 149.84"/>
    <polygon class="cls-1" points="134.35 17.92 112.69 61.45 156.68 149.84 200 149.84 134.35 17.92"/>
    <polygon class="cls-1" points="74.56 0 0 149.84 43.32 149.84 117.88 0 74.56 0"/>
</svg>

